<?xml version="1.0" encoding="utf-8"?>
<!-- Generator: Adobe Illustrator 24.0.1, SVG Export Plug-In . SVG Version: 6.00 Build 0)  -->
<svg version="1.1" id="图层_1" xmlns="http://www.w3.org/2000/svg" xmlns:xlink="http://www.w3.org/1999/xlink" x="0px" y="0px"
	 viewBox="0 0 128 128" style="enable-background:new 0 0 128 128;" xml:space="preserve">
<style type="text/css">
	.st0{fill:#FFFFFF;}
</style>
<g>
	<circle class="st0" cx="63.46" cy="63.85" r="11.8"/>
	<path class="st0" d="M77.39,65.85c-0.23-1.43-0.06-2.81,0.4-4.17c0.3-0.87,0.45-1.8,0.04-2.64c-0.62-1.28-1.31-2.55-2.74-3.15
		c-0.5-0.21-0.96-0.5-1.43-0.78c-1.24-0.76-2.12-1.84-2.78-3.12c-0.97-1.88-2.34-2.51-4.43-2.05c-0.7,0.15-1.36,0.42-2.07,0.52
		c-1.27,0.18-2.51,0.03-3.74-0.25c-0.66-0.15-1.31-0.38-1.99-0.47c-0.06,0-0.12,0-0.19,0c-1.63,0.15-2.66,1.14-3.44,2.48
		c-0.94,1.62-2.32,2.77-3.94,3.67c-0.5,0.28-0.99,0.58-1.41,0.98c-0.66,0.65-0.91,1.43-0.79,2.33c0.07,0.49,0.15,0.98,0.27,1.46
		c0.48,1.83,0.44,3.65-0.11,5.46c-0.18,0.58-0.23,1.18-0.21,1.79c0.01,0.32,0.04,0.63,0.19,0.9c0.7,1.22,1.34,2.49,2.77,3.06
		c1.1,0.44,2.04,1.11,2.82,2c0.52,0.59,0.89,1.27,1.3,1.93c0.59,0.95,1.29,1.75,2.42,2.06c0.82,0.22,1.63,0.07,2.44-0.11
		c0.88-0.2,1.73-0.5,2.64-0.54c1.04-0.05,2.03,0.18,3.03,0.43c0.84,0.21,1.69,0.37,2.57,0.23c1.14-0.18,1.95-0.8,2.45-1.8
		c0.66-1.32,1.55-2.42,2.7-3.33c0.44-0.35,0.93-0.62,1.45-0.84c1.93-0.83,2.66-2.18,2.25-4.24C77.74,67.04,77.49,66.47,77.39,65.85z
		 M63.46,75.85c-6.63,0-12-5.37-12-12s5.37-12,12-12s12,5.37,12,12S70.08,75.85,63.46,75.85z"/>
</g>
</svg>
