<?xml version="1.0" encoding="utf-8"?>
<!-- Generator: Adobe Illustrator 24.0.1, SVG Export Plug-In . SVG Version: 6.00 Build 0)  -->
<svg version="1.1" id="图层_1" xmlns="http://www.w3.org/2000/svg" xmlns:xlink="http://www.w3.org/1999/xlink" x="0px" y="0px"
	 viewBox="0 0 128 128" style="enable-background:new 0 0 128 128;" xml:space="preserve">
<style type="text/css">
	.st0{clip-path:url(#SVGID_2_);fill:#FDFDFD;}
	.st1{fill:#FDFDFD;}
</style>
<g>
	<defs>
		<rect id="SVGID_1_" x="1.11" y="0.82" width="125.78" height="127.18"/>
	</defs>
	<clipPath id="SVGID_2_">
		<use xlink:href="#SVGID_1_"  style="overflow:visible;"/>
	</clipPath>
	<path class="st0" d="M126.43,81.3c-0.42-2.82-1.2-5.58-2.29-8.22c-2.55-7.23-6.36-13.89-11.31-19.79c0.01-0.55,0.03-1.09,0.03-1.61
		c0-4.15-0.52-8.24-1.54-12.22c3.07-1.44,5.8-3.62,7.86-6.34c2.75-3.64,4.2-7.97,4.2-12.54c0-6.95-3.44-13.42-9.22-17.3l-3.64-2.45
		l-0.74,4.32c-1.02,5.93-5.39,10.62-11.11,12.1c-2.26-2.28-4.74-4.33-7.4-6.13l0.07-0.08l-2.89-1.67l-2.08-1.2l-0.04,0.04
		C79.44,4.67,71.76,2.8,63.99,2.8c-7.77,0-15.46,1.87-22.34,5.41l-0.04-0.04l-2.08,1.2l-2.89,1.67l0.07,0.08
		c-2.68,1.8-5.17,3.86-7.45,6.16C23.48,15.84,19.02,11.12,18,5.15l-0.74-4.32l-3.64,2.45c-5.78,3.89-9.21,10.36-9.21,17.3
		c0,4.57,1.46,8.9,4.19,12.54c2.09,2.76,4.87,4.98,8.01,6.43c-1.01,3.95-1.53,8.03-1.53,12.14c0,0.52,0.01,1.06,0.03,1.61
		c-4.95,5.9-8.76,12.56-11.32,19.79C2.7,75.74,1.92,78.5,1.5,81.32c-0.27,1.8-0.41,3.64-0.41,5.48c0,9.6,3.74,18.63,10.53,25.41
		c6.78,6.78,15.81,10.53,25.41,10.53c3.14,0,6.28-0.43,9.31-1.23c4.95,4.09,11.17,6.33,17.64,6.33c6.47,0,12.67-2.24,17.64-6.33
		c3.03,0.81,6.17,1.23,9.31,1.23c9.6,0,18.63-3.74,25.41-10.53c6.78-6.78,10.53-15.81,10.53-25.41
		C126.85,84.94,126.71,83.1,126.43,81.3L126.43,81.3z M90.84,36.42c-2.38-1.1-4.8-2.05-7.26-2.86c-0.01-0.07-0.03-0.16-0.03-0.23
		c0-0.04-0.01-0.1-0.01-0.14c-0.03-0.2-0.04-0.38-0.07-0.58c0-0.04-0.01-0.09-0.01-0.13c-0.01-0.16-0.03-0.33-0.04-0.48
		c0-0.06-0.01-0.1-0.01-0.16c-0.01-0.2-0.03-0.38-0.04-0.58v-0.08c-0.01-0.17-0.01-0.34-0.01-0.51v-0.16c0-0.2-0.01-0.4-0.01-0.6
		v-0.69c0-0.11,0-0.24,0.01-0.35c0-0.07,0-0.13,0.01-0.2c0-0.11,0.01-0.21,0.01-0.33c0-0.07,0.01-0.14,0.01-0.21
		c0.01-0.11,0.01-0.21,0.03-0.33c0-0.07,0.01-0.13,0.01-0.2c0.01-0.11,0.03-0.23,0.03-0.34c0-0.06,0.01-0.13,0.01-0.18
		c0.01-0.14,0.03-0.28,0.06-0.42c0-0.03,0-0.06,0.01-0.08c0.03-0.17,0.04-0.34,0.07-0.51c0.01-0.06,0.01-0.11,0.03-0.16
		c0.01-0.11,0.04-0.24,0.06-0.35c0.01-0.07,0.03-0.13,0.03-0.2c0.01-0.1,0.04-0.21,0.06-0.31l0.04-0.21c0.01-0.1,0.04-0.2,0.07-0.31
		l0.04-0.21c0.03-0.1,0.04-0.21,0.07-0.31c0.01-0.06,0.03-0.13,0.04-0.18c0.03-0.13,0.06-0.24,0.1-0.37
		c0.01-0.04,0.03-0.09,0.03-0.13c0.04-0.17,0.08-0.33,0.14-0.5c0.01-0.04,0.03-0.1,0.04-0.14c0.03-0.11,0.07-0.24,0.1-0.35
		c0.01-0.06,0.04-0.13,0.06-0.18c0.03-0.1,0.07-0.2,0.1-0.31c0.03-0.07,0.04-0.13,0.07-0.2c0.03-0.1,0.07-0.2,0.1-0.3
		c0.03-0.07,0.04-0.13,0.07-0.2c0.04-0.1,0.07-0.2,0.11-0.3c0.03-0.06,0.04-0.13,0.07-0.18c0.04-0.11,0.09-0.23,0.13-0.33
		c0.01-0.06,0.04-0.1,0.06-0.16c0.07-0.16,0.13-0.31,0.2-0.47c0.01-0.03,0.03-0.07,0.04-0.1c0.06-0.13,0.11-0.24,0.17-0.37
		l0.08-0.17c0.04-0.1,0.1-0.2,0.14-0.3c0.03-0.06,0.06-0.13,0.09-0.18c0.04-0.1,0.1-0.18,0.14-0.28c0.03-0.06,0.06-0.13,0.1-0.18
		c0.04-0.1,0.1-0.18,0.16-0.28c0.03-0.06,0.06-0.11,0.1-0.17c0.06-0.1,0.11-0.2,0.17-0.31c0.03-0.04,0.06-0.1,0.09-0.14
		c0.08-0.16,0.17-0.3,0.25-0.45c0-0.01,0.01-0.01,0.01-0.03c0.09-0.14,0.17-0.27,0.26-0.41c0.03-0.04,0.06-0.1,0.08-0.14
		c0.06-0.1,0.13-0.2,0.18-0.3c0.04-0.06,0.07-0.11,0.11-0.17c0.03-0.06,0.07-0.11,0.11-0.16c1.95,1.29,3.78,2.72,5.49,4.3l2.24,2.41
		c4.35,4.67,7.66,10.35,9.55,16.39l0.83,2.66l0.07-0.03c0.47,1.93,0.82,3.88,1.02,5.86C102.17,42.79,96.78,39.18,90.84,36.42
		L90.84,36.42z M109.4,17.42c2-1.95,3.55-4.25,4.6-6.77c2.35,2.72,3.68,6.23,3.68,9.91c0,3.33-1.06,6.48-3.06,9.13
		c-1.36,1.8-3.1,3.27-5.08,4.3c-0.95-2.45-2.09-4.84-3.44-7.12c-1.03-1.75-2.18-3.44-3.43-5.05
		C105.17,20.83,107.45,19.35,109.4,17.42L109.4,17.42z M63.96,8.45c6.53,0,12.98,1.49,18.83,4.32c-0.11,0.17-0.21,0.34-0.33,0.51
		c-0.03,0.04-0.06,0.1-0.09,0.14c-0.08,0.13-0.16,0.27-0.24,0.4c-0.04,0.07-0.07,0.13-0.11,0.2c-0.07,0.11-0.14,0.24-0.2,0.35
		c-0.04,0.07-0.08,0.14-0.11,0.21c-0.07,0.11-0.13,0.24-0.2,0.35c-0.04,0.07-0.07,0.13-0.11,0.2c-0.07,0.13-0.14,0.27-0.21,0.4
		c-0.03,0.06-0.06,0.1-0.09,0.16c-0.1,0.18-0.18,0.37-0.28,0.57c-0.01,0.03-0.03,0.06-0.04,0.1c-0.07,0.16-0.16,0.31-0.23,0.47
		c-0.03,0.07-0.06,0.13-0.08,0.2l-0.17,0.38c-0.03,0.07-0.06,0.14-0.1,0.21c-0.06,0.13-0.1,0.24-0.16,0.37l-0.08,0.21
		c-0.06,0.13-0.1,0.27-0.16,0.4c-0.03,0.06-0.04,0.13-0.07,0.18c-0.07,0.18-0.14,0.38-0.21,0.57v0.01c-0.07,0.2-0.14,0.4-0.2,0.59
		c-0.01,0.06-0.04,0.13-0.06,0.18c-0.04,0.14-0.09,0.27-0.13,0.41c-0.03,0.07-0.04,0.14-0.07,0.23c-0.04,0.13-0.07,0.25-0.11,0.38
		c-0.03,0.07-0.04,0.16-0.07,0.23c-0.04,0.13-0.07,0.27-0.11,0.4c-0.01,0.07-0.04,0.14-0.06,0.21c-0.04,0.16-0.09,0.33-0.13,0.48
		c-0.01,0.04-0.01,0.09-0.03,0.13c-0.04,0.2-0.1,0.41-0.14,0.61c-0.01,0.06-0.03,0.11-0.03,0.17c-0.03,0.16-0.07,0.3-0.1,0.45
		c-0.01,0.07-0.03,0.14-0.04,0.23c-0.03,0.13-0.06,0.27-0.07,0.4c-0.01,0.09-0.03,0.16-0.04,0.24c-0.03,0.13-0.04,0.27-0.07,0.4
		c-0.01,0.07-0.03,0.16-0.03,0.23c-0.03,0.16-0.04,0.3-0.07,0.45c-0.01,0.06-0.01,0.11-0.03,0.17c-0.03,0.21-0.06,0.41-0.07,0.62
		c0,0.04-0.01,0.09-0.01,0.11c-0.01,0.17-0.03,0.34-0.06,0.51c0,0.07-0.01,0.14-0.01,0.21c-0.01,0.14-0.03,0.28-0.03,0.41
		c0,0.09-0.01,0.16-0.01,0.24c-0.01,0.14-0.01,0.27-0.03,0.41c0,0.09-0.01,0.16-0.01,0.24c0,0.14-0.01,0.28-0.01,0.44v0.83
		c0,0.24,0,0.48,0.01,0.72v0.16c0,0.24,0.01,0.47,0.03,0.71v0.1c0,0.11,0.01,0.24,0.01,0.35c-4.49-0.99-9.09-1.49-13.77-1.49
		c-4.69,0-9.29,0.49-13.77,1.49c0.01-0.11,0.01-0.23,0.01-0.35v-0.1c0.01-0.24,0.01-0.47,0.03-0.71v-0.16
		c0-0.24,0.01-0.48,0.01-0.72v-0.83c0-0.14-0.01-0.28-0.01-0.44c0-0.08,0-0.16-0.01-0.24c0-0.13-0.01-0.27-0.03-0.4
		c0-0.09-0.01-0.16-0.01-0.24c-0.01-0.14-0.01-0.28-0.03-0.41c0-0.07-0.01-0.14-0.01-0.21c-0.01-0.17-0.03-0.34-0.06-0.51
		c0-0.04-0.01-0.08-0.01-0.13c-0.03-0.21-0.04-0.41-0.07-0.62c-0.01-0.06-0.01-0.11-0.03-0.17c-0.01-0.16-0.04-0.3-0.06-0.45
		c-0.01-0.07-0.03-0.16-0.03-0.23c-0.01-0.13-0.04-0.27-0.07-0.4c-0.01-0.09-0.03-0.16-0.04-0.24c-0.03-0.13-0.04-0.27-0.07-0.4
		c-0.01-0.07-0.03-0.14-0.04-0.23c-0.03-0.16-0.06-0.3-0.1-0.45l-0.04-0.17c-0.04-0.2-0.09-0.41-0.14-0.61
		c-0.01-0.04-0.01-0.09-0.03-0.13c-0.04-0.16-0.09-0.33-0.13-0.48c-0.01-0.07-0.04-0.14-0.06-0.21c-0.04-0.13-0.07-0.27-0.11-0.4
		c-0.03-0.07-0.04-0.16-0.07-0.23c-0.04-0.13-0.07-0.26-0.11-0.38c-0.03-0.07-0.04-0.14-0.07-0.23c-0.04-0.14-0.09-0.27-0.13-0.41
		c-0.01-0.06-0.04-0.13-0.06-0.18c-0.07-0.2-0.14-0.4-0.2-0.59v-0.01c-0.07-0.2-0.14-0.38-0.21-0.57c-0.03-0.06-0.04-0.13-0.07-0.18
		c-0.06-0.13-0.1-0.27-0.16-0.4l-0.09-0.21c-0.06-0.13-0.1-0.25-0.16-0.37l-0.09-0.21l-0.17-0.38c-0.03-0.06-0.06-0.13-0.08-0.18
		c-0.07-0.16-0.16-0.33-0.23-0.48l-0.04-0.09c-0.08-0.18-0.18-0.38-0.28-0.57c-0.03-0.04-0.06-0.1-0.07-0.14
		c-0.07-0.14-0.14-0.27-0.21-0.41c-0.03-0.07-0.07-0.13-0.1-0.2c-0.07-0.13-0.13-0.24-0.2-0.37c-0.04-0.07-0.07-0.13-0.11-0.2
		c-0.07-0.13-0.14-0.24-0.21-0.37c-0.04-0.06-0.07-0.13-0.11-0.18c-0.09-0.14-0.17-0.27-0.26-0.41c-0.03-0.04-0.06-0.08-0.07-0.13
		c-0.11-0.17-0.21-0.34-0.33-0.51C50.98,9.94,57.44,8.45,63.96,8.45L63.96,8.45z M22.73,38.67c0.11-0.38,0.24-0.75,0.37-1.13
		c1.36-3.94,3.33-7.69,5.78-11.1c0.11-0.16,0.24-0.33,0.35-0.48c0.95-1.29,1.97-2.52,3.06-3.68c2.38-2.56,5.02-4.8,7.91-6.71
		c0.04,0.06,0.07,0.1,0.11,0.16c0.04,0.06,0.07,0.11,0.11,0.17c0.06,0.1,0.13,0.2,0.18,0.3c0.03,0.04,0.06,0.1,0.1,0.14
		c0.08,0.14,0.17,0.27,0.25,0.41c0,0.01,0.01,0.03,0.01,0.03c0.09,0.14,0.17,0.3,0.25,0.45c0.03,0.04,0.06,0.1,0.08,0.14
		c0.06,0.1,0.11,0.2,0.17,0.31c0.03,0.06,0.06,0.11,0.1,0.17c0.06,0.1,0.1,0.18,0.16,0.28c0.03,0.06,0.07,0.13,0.1,0.18
		c0.04,0.1,0.1,0.18,0.14,0.28c0.03,0.06,0.06,0.13,0.09,0.18c0.04,0.1,0.1,0.2,0.14,0.3l0.09,0.17c0.06,0.13,0.11,0.24,0.17,0.37
		c0.01,0.03,0.03,0.07,0.04,0.1c0.07,0.16,0.13,0.31,0.2,0.47c0.01,0.06,0.04,0.1,0.06,0.16c0.04,0.11,0.08,0.23,0.13,0.33
		c0.03,0.06,0.04,0.13,0.07,0.18c0.04,0.1,0.07,0.2,0.11,0.3c0.03,0.07,0.04,0.13,0.07,0.2c0.03,0.1,0.07,0.2,0.1,0.3
		c0.03,0.07,0.04,0.13,0.07,0.2c0.03,0.1,0.07,0.2,0.1,0.31c0.01,0.06,0.04,0.13,0.06,0.18c0.04,0.11,0.07,0.24,0.1,0.35
		c0.01,0.04,0.03,0.1,0.04,0.14c0.04,0.17,0.1,0.33,0.14,0.5c0.01,0.04,0.03,0.09,0.03,0.13c0.03,0.13,0.06,0.24,0.1,0.37
		c0.01,0.06,0.03,0.13,0.04,0.18c0.03,0.1,0.04,0.21,0.07,0.31l0.04,0.21c0.03,0.1,0.04,0.2,0.07,0.31l0.04,0.21
		c0.01,0.1,0.04,0.21,0.06,0.31c0.01,0.07,0.03,0.13,0.03,0.2c0.01,0.11,0.04,0.24,0.06,0.35c0.01,0.06,0.01,0.11,0.03,0.16
		c0.03,0.17,0.06,0.34,0.07,0.51c0,0.03,0,0.06,0.01,0.08c0.01,0.14,0.04,0.28,0.06,0.42c0,0.06,0.01,0.13,0.01,0.18
		c0.01,0.11,0.03,0.23,0.03,0.34c0,0.07,0.01,0.13,0.01,0.2c0.01,0.11,0.01,0.21,0.03,0.33c0,0.07,0.01,0.14,0.01,0.21
		c0,0.11,0.01,0.21,0.01,0.33c0,0.07,0,0.13,0.01,0.2c0,0.11,0.01,0.24,0.01,0.35v0.69c0,0.2,0,0.4-0.01,0.6v0.16
		c0,0.17-0.01,0.34-0.01,0.51v0.08c-0.01,0.2-0.03,0.38-0.04,0.58c0,0.06-0.01,0.1-0.01,0.16c-0.01,0.16-0.03,0.33-0.04,0.48
		c0,0.04-0.01,0.08-0.01,0.13c-0.01,0.2-0.04,0.38-0.07,0.58c0,0.04-0.01,0.08-0.01,0.14c-0.01,0.07-0.03,0.16-0.03,0.23
		c-2.46,0.79-4.88,1.75-7.26,2.86c-5.93,2.76-11.32,6.36-16.12,10.74C21.27,44.27,21.85,41.43,22.73,38.67L22.73,38.67z M13.11,29.7
		c-2-2.65-3.06-5.8-3.06-9.13c0-3.68,1.33-7.19,3.68-9.91c1.06,2.52,2.62,4.8,4.6,6.77c2,1.95,4.32,3.47,6.86,4.49
		c-0.01,0.01-0.03,0.04-0.04,0.06c-0.16,0.21-0.33,0.42-0.48,0.64c-0.01,0.01-0.03,0.03-0.04,0.06l-0.42,0.59
		c-0.04,0.07-0.1,0.13-0.14,0.2c-0.11,0.16-0.23,0.31-0.33,0.47c-0.04,0.07-0.1,0.14-0.14,0.2c-0.13,0.18-0.25,0.37-0.38,0.57
		c-0.03,0.03-0.04,0.07-0.07,0.1c-0.14,0.23-0.3,0.44-0.44,0.67c-0.04,0.06-0.07,0.11-0.11,0.18c-0.11,0.17-0.21,0.34-0.31,0.51
		l-0.13,0.21c-0.1,0.17-0.21,0.35-0.31,0.52c-0.03,0.06-0.07,0.11-0.1,0.17c-0.13,0.23-0.27,0.45-0.4,0.69
		c-0.03,0.04-0.04,0.09-0.07,0.13c-0.11,0.18-0.21,0.38-0.31,0.57c-0.04,0.07-0.08,0.14-0.11,0.21c-0.09,0.17-0.18,0.34-0.27,0.51
		c-0.04,0.07-0.07,0.14-0.11,0.21c-0.24,0.47-0.48,0.95-0.71,1.43c-0.03,0.07-0.07,0.14-0.1,0.21c-0.09,0.17-0.16,0.35-0.24,0.52
		c-0.03,0.07-0.07,0.16-0.1,0.23c-0.08,0.2-0.17,0.38-0.25,0.58c-0.03,0.04-0.04,0.1-0.07,0.14c-0.1,0.24-0.21,0.48-0.31,0.72
		c-0.03,0.06-0.06,0.13-0.07,0.18c-0.07,0.18-0.14,0.37-0.23,0.55c-0.01,0.04-0.03,0.07-0.04,0.11
		C16.31,33.05,14.49,31.54,13.11,29.7L13.11,29.7z M63.96,122.15c-3.99,0-7.86-1.06-11.22-3.06c0.33-0.16,0.66-0.33,0.99-0.49
		c3.86-2.04,7.35-4.78,10.23-8.07c2.89,3.28,6.38,6.03,10.23,8.07c0.33,0.17,0.65,0.34,0.99,0.49
		C71.82,121.08,67.96,122.15,63.96,122.15L63.96,122.15z M112.32,108.18c-5.72,5.72-13.32,8.86-21.4,8.86
		c-3.96,0-7.9-0.78-11.52-2.28c-0.09-0.04-0.17-0.07-0.25-0.11c-0.13-0.06-0.24-0.1-0.37-0.16c-3.44-1.51-6.6-3.68-9.26-6.34
		l-0.2-0.2c-0.1-0.1-0.2-0.2-0.3-0.31c-0.16-0.16-0.3-0.33-0.45-0.48c-0.07-0.07-0.14-0.16-0.2-0.23l-0.34-0.38
		c-0.06-0.07-0.11-0.14-0.18-0.21c-0.16-0.18-0.33-0.38-0.48-0.58c-0.03-0.04-0.06-0.07-0.09-0.11c-0.14-0.17-0.27-0.34-0.41-0.52
		l-0.13-0.17l-0.47-0.64l-2.31-3.2l-2.31,3.23l-0.47,0.64l-0.13,0.17c-0.13,0.17-0.27,0.34-0.4,0.51c-0.03,0.04-0.06,0.09-0.1,0.11
		c-0.16,0.2-0.31,0.38-0.48,0.58c-0.06,0.07-0.13,0.14-0.18,0.21c-0.11,0.13-0.23,0.25-0.33,0.38c-0.07,0.07-0.14,0.16-0.21,0.23
		c-0.14,0.16-0.3,0.33-0.45,0.48c-0.1,0.1-0.2,0.21-0.3,0.31c-0.06,0.07-0.13,0.13-0.2,0.2c-2.66,2.66-5.82,4.83-9.26,6.34
		c-0.13,0.06-0.24,0.11-0.37,0.16c-0.09,0.04-0.17,0.07-0.26,0.11c-3.64,1.5-7.57,2.28-11.52,2.28c-8.08,0-15.68-3.14-21.4-8.86
		c-5.72-5.72-8.86-13.32-8.86-21.4c0-1.54,0.11-3.1,0.35-4.61c0.37-2.39,1.02-4.74,1.95-6.98l0.06-0.14
		c2.43-6.95,6.14-13.31,11.01-18.9c0.21-0.24,0.42-0.48,0.64-0.71c0.04-0.06,0.1-0.11,0.16-0.17c0.18-0.21,0.38-0.43,0.58-0.62
		l0.07-0.07c7.12-7.6,16.09-13.14,26.09-16.07h0.01c4.64-1.36,9.43-2.12,14.25-2.31h0.01c0.3-0.01,0.61-0.01,0.91-0.03h0.18
		c0.33,0,0.64-0.01,0.96-0.01c0.33,0,0.64,0,0.96,0.01h0.18c0.3,0,0.61,0.01,0.91,0.03h0.01c4.83,0.17,9.61,0.95,14.25,2.31
		c9.99,2.92,18.97,8.45,26.09,16.07c0.01,0.03,0.04,0.04,0.06,0.07c0.2,0.21,0.38,0.41,0.58,0.62c0.04,0.06,0.1,0.11,0.14,0.17
		c0.21,0.24,0.42,0.47,0.64,0.71c4.87,5.59,8.58,11.95,11.01,18.9l0.06,0.14c0.93,2.25,1.6,4.6,1.95,6.99
		c0.23,1.51,0.35,3.07,0.35,4.61C121.19,94.86,118.04,102.46,112.32,108.18L112.32,108.18z M112.32,108.18"/>
</g>
<path class="st1" d="M29.1,78.13c0,2.14,1.14,4.12,3,5.2c1.86,1.07,4.14,1.07,6,0c1.86-1.07,3-3.05,3-5.2c0-3.31-2.69-6-6-6
	C31.79,72.13,29.1,74.82,29.1,78.13L29.1,78.13z M29.1,78.13"/>
<path class="st1" d="M86.9,78.13c0,2.14,1.14,4.12,3,5.2c1.86,1.07,4.14,1.07,6,0c1.86-1.07,3-3.05,3-5.2c0-2.14-1.14-4.12-3-5.2
	c-1.86-1.07-4.14-1.07-6,0C88.04,74.01,86.9,75.99,86.9,78.13L86.9,78.13z M86.9,78.13"/>
</svg>
